{"resCode": "200",
  "resMsg": "success",
  "resObject": {
    "dateList": [
      {
        "dateList": null,
        "pageSize": 10,
        "totalPage": 0,
        "pagecode": 10,
        "currentPage": 1,
        "totalCount": 0,
        "offset": 0,
        "id": "f7a4a927-4100-4fd0-b8cc-9330dd807d20",
        "title": "Peppermint - Movie Corner",
        "titleImage": "/attachments/image/80/146/114/435923_143843/435923_143843_296_167_jpg.jpg",
        "bigTitleImage": "/attachments/image/155/7/173/435923_143843/435923_143843_800_auto_jpg.jpg",
        "authorName": "",
        "publishTime": "March 08, 2019",
        "local": "/articles/59/14/152/1546245865210.json",
        "jsonUrl": "/articles/59/14/152/1546245865210.json",
        "murl": "",
        "description": "Directed by French director Pierre Morel and penned by Chad St. John, Peppermint (2018) stars Jennifer Gardner (who played Riley North, the female vigilante ). After much anticipation since the much touted TV series Alias, she made a comeback as an action heroine. (Synopsis) Five years after her husband and daughter are killed in a senseless act of violence, Riley North returns from a self-imposed exile to seek revenge against the assailants.",
        "dataId": "57832",
        "dataType": 3,
        "subjectName": "Movie Corner",
        "subjectCode": "movie_corner",
        "state": 1,
        "fullPublishTime": "2019-03-08 12:09:40",
        "image": null,
        "filterStr": null,
        "firstIndex": 0
      },
      {
        "dateList": null,
        "pageSize": 10,
        "totalPage": 0,
        "pagecode": 10,
        "currentPage": 1,
        "totalCount": 0,
        "offset": 0,
        "id": "f972ac63-6bd6-47d5-b7d9-705198043fcb",
        "title": "Hindi Medium - Movie Corner",
        "titleImage": "/attachments/image/125/48/107/437830_145683/437830_145683_296_167_jpg.jpg",
        "bigTitleImage": "/attachments/image/33/228/216/437830_145683/437830_145683_800_auto_jpg.jpg",
        "authorName": "",
        "publishTime": "January 09, 2019",
        "local": "/articles/21/27/76/1547028277727.json",
        "jsonUrl": "/articles/21/27/76/1547028277727.json",
        "murl": "",
        "description": "Mita, the better half of Raj in Hindi Medium, is desperate to send her daughter to one of the top primary schools in Delhi. That’s being said, Raj’s habit of speaking Hindi in an anti-climax. Their daughter, finally, gets admitted to the school with forged papers. Despite the success, Raj proclaims in the end, “I’m taking my child out of this school today”. What’s exactly happened?",
        "dataId": "58676",
        "dataType": 3,
        "subjectName": "Movie Corner",
        "subjectCode": "movie_corner",
        "state": 1,
        "fullPublishTime": "2019-01-09 18:02:43",
        "image": null,
        "filterStr": null,
        "firstIndex": 0
      },
      {
        "dateList": null,
        "pageSize": 10,
        "totalPage": 0,
        "pagecode": 10,
        "currentPage": 1,
        "totalCount": 0,
        "offset": 0,
        "id": "17481433-5ff2-4159-9c08-3c5ec7d0450a",
        "title": "The Meg - Movie Corner",
        "titleImage": "/attachments/image/133/196/212/434102_142180/434102_142180_296_167_jpg.jpg",
        "bigTitleImage": "/attachments/image/129/17/246/434102_142180/434102_142180_800_auto_jpg.jpg",
        "authorName": "",
        "publishTime": "December 20, 2018",
        "local": "/articles/161/209/54/1545299180444.json",
        "jsonUrl": "/articles/161/209/54/1545299180444.json",
        "murl": "",
        "description": "\"The Meg\", directed by Jon Turteltaub, is loosely based on the 1997 book 'Meg: A Novel of Deep Terror' by Steve Alten. The film stars Jason Statham, Li Bingbing, Rainn Wilson, Ruby Rose, Winston Chao, and Cliff Curtis.",
        "dataId": "57096",
        "dataType": 3,
        "subjectName": "Movie Corner",
        "subjectCode": "movie_corner",
        "state": 1,
        "fullPublishTime": "2018-12-20 17:47:44",
        "image": null,
        "filterStr": null,
        "firstIndex": 0
      },
      {
        "dateList": null,
        "pageSize": 10,
        "totalPage": 0,
        "pagecode": 10,
        "currentPage": 1,
        "totalCount": 0,
        "offset": 0,
        "id": "5b0de32c-0987-4858-b8d4-6cb87a112b9b",
        "title": "The Incredibles 2 - Movie Corner",
        "titleImage": "/attachments/image/116/85/167/430095_138457/430095_138457_296_167_jpg.jpg",
        "bigTitleImage": "/attachments/image/27/99/161/430095_138457/430095_138457_800_auto_jpg.jpg",
        "authorName": "",
        "publishTime": "December 04, 2018",
        "local": "/articles/222/88/29/1543916430735.json",
        "jsonUrl": "/articles/222/88/29/1543916430735.json",
        "murl": "",
        "description": "“Incredibles 2” has to be one of the most anticipated animation sequels ever. In this Incredible world superheroes are illegal, but Elastigirl is hired by a superhero-friendly millionaire to save the world.",
        "dataId": "55494",
        "dataType": 3,
        "subjectName": "Movie Corner",
        "subjectCode": "movie_corner",
        "state": 1,
        "fullPublishTime": "2018-12-04 17:39:46",
        "image": null,
        "filterStr": null,
        "firstIndex": 0
      },
      {
        "dateList": null,
        "pageSize": 10,
        "totalPage": 0,
        "pagecode": 10,
        "currentPage": 1,
        "totalCount": 0,
        "offset": 0,
        "id": "f8d2d410-b7d6-4b29-b370-b300d510c8ce",
        "title": "Crazy Rich Asians - Movie Corner",
        "titleImage": "/attachments/image/212/138/73/427752_136331/427752_136331_296_167_jpg.jpg",
        "bigTitleImage": "/attachments/image/198/204/239/427752_136331/427752_136331_800_auto_jpg.jpg",
        "authorName": "",
        "publishTime": "November 23, 2018",
        "local": "/articles/46/1/120/1542966975413.json",
        "jsonUrl": "/articles/46/1/120/1542966975413.json",
        "murl": "",
        "description": "Crazy Rich Asians is a Singaporean movie that tells a story of a young Chinese couple struggling to find a balance between their love and the traditional expectations of their families.",
        "dataId": "54533",
        "dataType": 3,
        "subjectName": "Movie Corner",
        "subjectCode": "movie_corner",
        "state": 1,
        "fullPublishTime": "2018-11-23 17:57:51",
        "image": null,
        "filterStr": null,
        "firstIndex": 0
      },
      {
        "dateList": null,
        "pageSize": 10,
        "totalPage": 0,
        "pagecode": 10,
        "currentPage": 1,
        "totalCount": 0,
        "offset": 0,
        "id": "865845f4-633b-439f-89b0-49dd86352242",
        "title": "Chungking Express - Movie Corner",
        "titleImage": "/attachments/image/13/48/96/420274_129490/420274_129490_296_167_jpg.jpg",
        "bigTitleImage": "/attachments/image/245/121/39/420274_129490/420274_129490_800_auto_jpg.jpg",
        "authorName": "",
        "publishTime": "October 25, 2018",
        "local": "/articles/105/118/21/1540455446898.json",
        "jsonUrl": "/articles/105/118/21/1540455446898.json",
        "murl": "",
        "description": "In this episode of Movie Corner, we take a closer look at the Hong Kong new wave classic movie - Chungking Express, to explore the techniques of director Wong Kar-Wai, and what has made his films so iconic and influential.",
        "dataId": "51744",
        "dataType": 3,
        "subjectName": "Movie Corner",
        "subjectCode": "movie_corner",
        "state": 1,
        "fullPublishTime": "2018-10-25 16:19:02",
        "image": null,
        "filterStr": null,
        "firstIndex": 0
      },
      {
        "dateList": null,
        "pageSize": 10,
        "totalPage": 0,
        "pagecode": 10,
        "currentPage": 1,
        "totalCount": 0,
        "offset": 0,
        "id": "d09d9a63-e933-4126-990b-1b3a6e4b83ca",
        "title": "Mission Impossible: Fall Out - Movie Corner",
        "titleImage": "/attachments/image/29/197/145/414142_123961/414142_123961_296_167_jpg.jpg",
        "bigTitleImage": "/attachments/image/73/74/185/414142_123961/414142_123961_800_auto_jpg.jpg",
        "authorName": "",
        "publishTime": "September 28, 2018",
        "local": "/articles/88/140/180/1538116745576.json",
        "jsonUrl": "/articles/88/140/180/1538116745576.json",
        "murl": "",
        "description": "Mission: Impossible - Fallout is the latest instalment of the Mission: Impossible series. And once again Tom Cruise, who returns to play Ethan Hunt, shows us how much he likes doing his own stunts.",
        "dataId": "49403",
        "dataType": 3,
        "subjectName": "Movie Corner",
        "subjectCode": "movie_corner",
        "state": 1,
        "fullPublishTime": "2018-09-28 14:39:53",
        "image": null,
        "filterStr": null,
        "firstIndex": 0
      },
      {
        "dateList": null,
        "pageSize": 10,
        "totalPage": 0,
        "pagecode": 10,
        "currentPage": 1,
        "totalCount": 0,
        "offset": 0,
        "id": "7b2ea79a-a160-4d1c-8216-08ce17c3954e",
        "title": "Ocean's 8 - Movie Corner",
        "titleImage": "/attachments/image/148/141/142/411564_121710/411564_121710_296_167_jpg.jpg",
        "bigTitleImage": "/attachments/image/113/157/174/411564_121710/411564_121710_800_auto_jpg.jpg",
        "authorName": "",
        "publishTime": "September 17, 2018",
        "local": "/articles/108/189/111/1537172454242.json",
        "jsonUrl": "/articles/108/189/111/1537172454242.json",
        "murl": "",
        "description": "Ocean's 8 is a heist film directed by Steven Soderbergh, but it brings one key difference to the screen: an all-female cast.",
        "dataId": "48362",
        "dataType": 3,
        "subjectName": "Movie Corner",
        "subjectCode": "movie_corner",
        "state": 1,
        "fullPublishTime": "2018-09-17 16:19:39",
        "image": null,
        "filterStr": null,
        "firstIndex": 0
      },
      {
        "dateList": null,
        "pageSize": 10,
        "totalPage": 0,
        "pagecode": 10,
        "currentPage": 1,
        "totalCount": 0,
        "offset": 0,
        "id": "ff7b3a7c-bd8e-4688-a4ae-a2589c5af2b3",
        "title": "Your Name - Movie Corner",
        "titleImage": "/attachments/image/120/101/40/406649_117350/406649_117350_296_167_jpg.jpg",
        "bigTitleImage": "/attachments/image/39/234/124/406649_117350/406649_117350_800_auto_jpg.jpg",
        "authorName": "",
        "publishTime": "August 27, 2018",
        "local": "/articles/89/191/178/1535358517483.json",
        "jsonUrl": "/articles/89/191/178/1535358517483.json",
        "murl": "",
        "description": "In this episode, we take a look at animated film \"Your Name\", which tells a tear-jerking story about two Japanese teenagers.",
        "dataId": "46398",
        "dataType": 3,
        "subjectName": "Movie Corner",
        "subjectCode": "movie_corner",
        "state": 1,
        "fullPublishTime": "2018-08-27 16:27:54",
        "image": null,
        "filterStr": null,
        "firstIndex": 0
      },
      {
        "dateList": null,
        "pageSize": 10,
        "totalPage": 0,
        "pagecode": 10,
        "currentPage": 1,
        "totalCount": 0,
        "offset": 0,
        "id": "e8fdb685-ae7a-479d-9318-24a39632dc5c",
        "title": "Movie Corner - Avengers: Infinity War",
        "titleImage": "/attachments/image/233/138/21/240101_99474/240101_99474_296_167_jpg.jpg",
        "bigTitleImage": "/attachments/image/228/210/211/240101_99474/240101_99474_800_auto_jpg.jpg",
        "authorName": "",
        "publishTime": "June 08, 2018",
        "local": "/articles/109/90/121/1528447772770.json",
        "jsonUrl": "/articles/109/90/121/1528447772770.json",
        "murl": "",
        "description": "\"Avengers: Infinity War\" brings many of the Marvel characters together to fight the battle which will lead, as Dr. Strange hints, to the \"end game\".",
        "dataId": "38271",
        "dataType": 3,
        "subjectName": "Movie Corner",
        "subjectCode": "movie_corner",
        "state": 1,
        "fullPublishTime": "2018-06-08 16:52:47",
        "image": null,
        "filterStr": null,
        "firstIndex": 0
      }
    ],
    "pageSize": 10,
    "totalPage": 2,
    "pagecode": 10,
    "currentPage": 1,
    "totalCount": 15,
    "offset": 0,
    "firstIndex": 0
  }
}